{
    "watch": {

        "configFiles": {
         "files": ["Gruntfile.js", "assets/*/*.js"],
         "options": {
          "reload": true
         }
        },
        
        "assets":{
            "files": ["assets/css/*.css", "assets/js/*.js"],
            "tasks": ["default"]     
            },

        "html":{
            "files":["sac_application/controllers/*.{html,php}", "sac_application/views/*.{html,php}"],
             "tasks": ["default"]      
        },
        "img":{
         "files": ["assets/img/*.{jpg,png}"]
         },

            "options": {
            "livereload": true
            },
        }
        
        "gruntfile":{
         "files":"Gruntfile.js",
         "tasks":["default"]
         },
         "src": {
             "files": ["assets/*.{js,css}", "sac_application/*/*.{html,php}"],
             "img": ["assets/*.{jpg,png}"],
             "tasks": ["default"]
         },

        "browser_sync": {
        "dev": {
            "bsFiles": {
                "src" : [
                        "assets/css/*.css",
                        "assets/js/*.js",
                        "sac_application/*/*.{html,php}"
                        ]
            },
            "options": {
                "watchTask": true,
                }
            },
            "ghostMode" : {
                "scroll": true,
                "links": true,
                "forms": true
            }
}